<?xml version="1.0" encoding="utf-8"?>
<!DOCTYPE eagle SYSTEM "eagle.dtd">
<eagle version="9.0.0">
<drawing>
<settings>
<setting alwaysvectorfont="no"/>
<setting verticaltext="up"/>
</settings>
<grid distance="0.1" unitdist="inch" unit="inch" style="lines" multiple="1" display="yes" altdistance="0.01" altunitdist="inch" altunit="inch"/>
<layers>
<layer number="1" name="Top" color="4" fill="1" visible="yes" active="yes"/>
<layer number="2" name="Route2" color="1" fill="3" visible="no" active="yes"/>
<layer number="3" name="Route3" color="4" fill="3" visible="no" active="yes"/>
<layer number="4" name="Route4" color="1" fill="4" visible="no" active="yes"/>
<layer number="5" name="Route5" color="4" fill="4" visible="no" active="yes"/>
<layer number="6" name="Route6" color="1" fill="8" visible="no" active="yes"/>
<layer number="7" name="Route7" color="4" fill="8" visible="no" active="yes"/>
<layer number="8" name="Route8" color="1" fill="2" visible="no" active="yes"/>
<layer number="9" name="Route9" color="4" fill="2" visible="no" active="yes"/>
<layer number="10" name="Route10" color="1" fill="7" visible="no" active="yes"/>
<layer number="11" name="Route11" color="4" fill="7" visible="no" active="yes"/>
<layer number="12" name="Route12" color="1" fill="5" visible="no" active="yes"/>
<layer number="13" name="Route13" color="4" fill="5" visible="no" active="yes"/>
<layer number="14" name="Route14" color="1" fill="6" visible="no" active="yes"/>
<layer number="15" name="Route15" color="4" fill="6" visible="no" active="yes"/>
<layer number="16" name="Bottom" color="1" fill="1" visible="yes" active="yes"/>
<layer number="17" name="Pads" color="2" fill="1" visible="yes" active="yes"/>
<layer number="18" name="Vias" color="2" fill="1" visible="yes" active="yes"/>
<layer number="19" name="Unrouted" color="6" fill="1" visible="yes" active="yes"/>
<layer number="20" name="Dimension" color="24" fill="1" visible="yes" active="yes"/>
<layer number="21" name="tPlace" color="7" fill="1" visible="yes" active="yes"/>
<layer number="22" name="bPlace" color="7" fill="1" visible="yes" active="yes"/>
<layer number="23" name="tOrigins" color="15" fill="1" visible="yes" active="yes"/>
<layer number="24" name="bOrigins" color="15" fill="1" visible="yes" active="yes"/>
<layer number="25" name="tNames" color="7" fill="1" visible="yes" active="yes"/>
<layer number="26" name="bNames" color="7" fill="1" visible="yes" active="yes"/>
<layer number="27" name="tValues" color="7" fill="1" visible="yes" active="yes"/>
<layer number="28" name="bValues" color="7" fill="1" visible="yes" active="yes"/>
<layer number="29" name="tStop" color="7" fill="3" visible="no" active="yes"/>
<layer number="30" name="bStop" color="7" fill="6" visible="no" active="yes"/>
<layer number="31" name="tCream" color="7" fill="4" visible="no" active="yes"/>
<layer number="32" name="bCream" color="7" fill="5" visible="no" active="yes"/>
<layer number="33" name="tFinish" color="6" fill="3" visible="no" active="yes"/>
<layer number="34" name="bFinish" color="6" fill="6" visible="no" active="yes"/>
<layer number="35" name="tGlue" color="7" fill="4" visible="no" active="yes"/>
<layer number="36" name="bGlue" color="7" fill="5" visible="no" active="yes"/>
<layer number="37" name="tTest" color="7" fill="1" visible="no" active="yes"/>
<layer number="38" name="bTest" color="7" fill="1" visible="no" active="yes"/>
<layer number="39" name="tKeepout" color="4" fill="11" visible="yes" active="yes"/>
<layer number="40" name="bKeepout" color="1" fill="11" visible="yes" active="yes"/>
<layer number="41" name="tRestrict" color="4" fill="10" visible="yes" active="yes"/>
<layer number="42" name="bRestrict" color="1" fill="10" visible="yes" active="yes"/>
<layer number="43" name="vRestrict" color="2" fill="10" visible="yes" active="yes"/>
<layer number="44" name="Drills" color="7" fill="1" visible="no" active="yes"/>
<layer number="45" name="Holes" color="7" fill="1" visible="no" active="yes"/>
<layer number="46" name="Milling" color="3" fill="1" visible="no" active="yes"/>
<layer number="47" name="Measures" color="7" fill="1" visible="no" active="yes"/>
<layer number="48" name="Document" color="7" fill="1" visible="yes" active="yes"/>
<layer number="49" name="Reference" color="7" fill="1" visible="yes" active="yes"/>
<layer number="51" name="tDocu" color="7" fill="1" visible="yes" active="yes"/>
<layer number="52" name="bDocu" color="7" fill="1" visible="yes" active="yes"/>
<layer number="88" name="SimResults" color="9" fill="1" visible="yes" active="yes"/>
<layer number="89" name="SimProbes" color="9" fill="1" visible="yes" active="yes"/>
<layer number="90" name="Modules" color="5" fill="1" visible="yes" active="yes"/>
<layer number="91" name="Nets" color="2" fill="1" visible="yes" active="yes"/>
<layer number="92" name="Busses" color="1" fill="1" visible="yes" active="yes"/>
<layer number="93" name="Pins" color="2" fill="1" visible="yes" active="yes"/>
<layer number="94" name="Symbols" color="4" fill="1" visible="yes" active="yes"/>
<layer number="95" name="Names" color="7" fill="1" visible="yes" active="yes"/>
<layer number="96" name="Values" color="7" fill="1" visible="yes" active="yes"/>
<layer number="97" name="Info" color="7" fill="1" visible="yes" active="yes"/>
<layer number="98" name="Guide" color="6" fill="1" visible="yes" active="yes"/>
</layers>
<library>
<packages>
<package name="MAX118CPI">
<wire x1="0" y1="0" x2="0" y2="-35.56" width="0.127" layer="21"/>
<wire x1="0" y1="-35.56" x2="17.78" y2="-35.56" width="0.127" layer="21"/>
<wire x1="17.78" y1="-35.56" x2="17.78" y2="0" width="0.127" layer="21"/>
<wire x1="17.78" y1="0" x2="0" y2="0" width="0.127" layer="21"/>
<pad name="IN6" x="1.27" y="-1.27" drill="0.6" diameter="1.778" shape="square"/>
<pad name="IN5" x="1.27" y="-3.81" drill="0.6" diameter="1.778"/>
<pad name="IN4" x="1.27" y="-6.35" drill="0.6" diameter="1.778"/>
<pad name="IN3" x="1.27" y="-8.89" drill="0.6" diameter="1.778"/>
<pad name="IN2" x="1.27" y="-11.43" drill="0.6" diameter="1.778"/>
<pad name="IN1" x="1.27" y="-13.97" drill="0.6" diameter="1.778"/>
<pad name="MODE" x="1.27" y="-16.51" drill="0.6" diameter="1.778"/>
<pad name="D0" x="1.27" y="-19.05" drill="0.6" diameter="1.778"/>
<pad name="D1" x="1.27" y="-21.59" drill="0.6" diameter="1.778"/>
<pad name="D2" x="1.27" y="-24.13" drill="0.6" diameter="1.778"/>
<pad name="D3" x="1.27" y="-26.67" drill="0.6" diameter="1.778"/>
<pad name="RD" x="1.27" y="-29.21" drill="0.6" diameter="1.778"/>
<pad name="INT" x="1.27" y="-31.75" drill="0.6" diameter="1.778"/>
<pad name="GND" x="1.27" y="-34.29" drill="0.6" diameter="1.778"/>
<pad name="REF-" x="16.51" y="-34.29" drill="0.6" diameter="1.778"/>
<pad name="REF+" x="16.51" y="-31.75" drill="0.6" diameter="1.778"/>
<pad name="WR/RDY" x="16.51" y="-29.21" drill="0.6" diameter="1.778"/>
<pad name="CS" x="16.51" y="-26.67" drill="0.6" diameter="1.778"/>
<pad name="D4" x="16.51" y="-24.13" drill="0.6" diameter="1.778"/>
<pad name="D5" x="16.51" y="-21.59" drill="0.6" diameter="1.778"/>
<pad name="D6" x="16.51" y="-19.05" drill="0.6" diameter="1.778"/>
<pad name="D7" x="16.51" y="-16.51" drill="0.6" diameter="1.778"/>
<pad name="A2" x="16.51" y="-13.97" drill="0.6" diameter="1.778"/>
<pad name="A1" x="16.51" y="-11.43" drill="0.6" diameter="1.778"/>
<pad name="A0" x="16.51" y="-8.89" drill="0.6" diameter="1.778"/>
<pad name="PWRDN" x="16.51" y="-6.35" drill="0.6" diameter="1.778"/>
<pad name="VDD" x="16.51" y="-3.81" drill="0.6" diameter="1.778"/>
<pad name="IN7" x="16.51" y="-1.27" drill="0.6" diameter="1.778"/>
<text x="0" y="1.27" size="1.27" layer="25">&gt;NAME</text>
<text x="0" y="-38.1" size="1.27" layer="27">&gt;VALUE</text>
</package>
<package name="LOGICLEVELCONVERTER">
<wire x1="0" y1="0" x2="12.7" y2="0" width="0.1524" layer="21"/>
<wire x1="12.7" y1="0" x2="12.7" y2="-15.24" width="0.1524" layer="21"/>
<wire x1="12.7" y1="-15.24" x2="0" y2="-15.24" width="0.1524" layer="21"/>
<wire x1="0" y1="-15.24" x2="0" y2="0" width="0.1524" layer="21"/>
<pad name="HV4" x="1.27" y="-1.27" drill="0.6" diameter="1.778" shape="square"/>
<pad name="HV3" x="1.27" y="-3.81" drill="0.6" diameter="1.778"/>
<pad name="GND" x="1.27" y="-6.35" drill="0.6" diameter="1.778"/>
<pad name="HV" x="1.27" y="-8.89" drill="0.6" diameter="1.778"/>
<pad name="HV2" x="1.27" y="-11.43" drill="0.6" diameter="1.778"/>
<pad name="HV1" x="1.27" y="-13.97" drill="0.6" diameter="1.778"/>
<pad name="LV1" x="11.43" y="-13.97" drill="0.6" diameter="1.778"/>
<pad name="LV2" x="11.43" y="-11.43" drill="0.6" diameter="1.778"/>
<pad name="LV" x="11.43" y="-8.89" drill="0.6" diameter="1.778"/>
<pad name="LGND" x="11.43" y="-6.35" drill="0.6" diameter="1.778"/>
<pad name="LV3" x="11.43" y="-3.81" drill="0.6" diameter="1.778"/>
<pad name="LV4" x="11.43" y="-1.27" drill="0.6" diameter="1.778"/>
<text x="0" y="1.27" size="1.778" layer="25">&gt;NAME</text>
<text x="0" y="-17.78" size="1.778" layer="27">&gt;VALUE</text>
</package>
<package name="TSC295033">
<pad name="OUT" x="1.27" y="-1.27" drill="0.6" diameter="1.778"/>
<pad name="GND" x="3.81" y="-1.27" drill="0.6" diameter="1.778"/>
<pad name="IN" x="6.35" y="-1.27" drill="0.6" diameter="1.778"/>
<text x="7.62" y="-5.08" size="1.778" layer="26" rot="MR0">&gt;NAME</text>
<wire x1="0" y1="-2.54" x2="7.62" y2="-2.54" width="0.1524" layer="26"/>
<wire x1="7.62" y1="-2.54" x2="3.81" y2="1.27" width="0.1524" layer="26" curve="90"/>
<wire x1="0" y1="-2.54" x2="3.81" y2="1.27" width="0.1524" layer="26" curve="-90"/>
</package>
</packages>
<symbols>
<symbol name="MAX118CPI">
<pin name="IN6" x="-7.62" y="27.94" length="middle"/>
<pin name="IN5" x="-7.62" y="22.86" length="middle"/>
<pin name="IN4" x="-7.62" y="17.78" length="middle"/>
<pin name="IN3" x="-7.62" y="12.7" length="middle"/>
<pin name="IN2" x="-7.62" y="7.62" length="middle"/>
<pin name="IN1" x="-7.62" y="2.54" length="middle"/>
<pin name="MODE" x="-7.62" y="-2.54" length="middle"/>
<pin name="D0" x="-7.62" y="-7.62" length="middle"/>
<pin name="D1" x="-7.62" y="-12.7" length="middle"/>
<pin name="D2" x="-7.62" y="-17.78" length="middle"/>
<pin name="D3" x="-7.62" y="-22.86" length="middle"/>
<pin name="RD" x="-7.62" y="-27.94" length="middle"/>
<pin name="INT" x="-7.62" y="-33.02" length="middle"/>
<pin name="GND" x="-7.62" y="-38.1" length="middle"/>
<pin name="REF-" x="22.86" y="-38.1" length="middle" rot="R180"/>
<pin name="REF+" x="22.86" y="-33.02" length="middle" rot="R180"/>
<pin name="WR/RDY" x="22.86" y="-27.94" length="middle" rot="R180"/>
<pin name="CS" x="22.86" y="-22.86" length="middle" rot="R180"/>
<pin name="D4" x="22.86" y="-17.78" length="middle" rot="R180"/>
<pin name="D5" x="22.86" y="-12.7" length="middle" rot="R180"/>
<pin name="D6" x="22.86" y="-7.62" length="middle" rot="R180"/>
<pin name="D7" x="22.86" y="-2.54" length="middle" rot="R180"/>
<pin name="A2" x="22.86" y="2.54" length="middle" rot="R180"/>
<pin name="A1" x="22.86" y="7.62" length="middle" rot="R180"/>
<pin name="A0" x="22.86" y="12.7" length="middle" rot="R180"/>
<pin name="PWRDN" x="22.86" y="17.78" length="middle" rot="R180"/>
<pin name="VDD" x="22.86" y="22.86" length="middle" rot="R180"/>
<pin name="IN7" x="22.86" y="27.94" length="middle" rot="R180"/>
<wire x1="17.78" y1="30.48" x2="-2.54" y2="30.48" width="0.254" layer="94"/>
<wire x1="-2.54" y1="30.48" x2="-2.54" y2="-40.64" width="0.254" layer="94"/>
<wire x1="-2.54" y1="-40.64" x2="17.78" y2="-40.64" width="0.254" layer="94"/>
<wire x1="17.78" y1="-40.64" x2="17.78" y2="30.48" width="0.254" layer="94"/>
<text x="-2.54" y="33.02" size="1.778" layer="95">&gt;NAME</text>
<text x="-2.54" y="-45.72" size="1.778" layer="96">&gt;VALUE</text>
</symbol>
<symbol name="LOGICLEVELCONVERTER">
<wire x1="0" y1="0" x2="0" y2="30.48" width="0.1524" layer="94"/>
<wire x1="0" y1="30.48" x2="15.24" y2="30.48" width="0.1524" layer="94"/>
<wire x1="15.24" y1="30.48" x2="15.24" y2="0" width="0.1524" layer="94"/>
<wire x1="15.24" y1="0" x2="0" y2="0" width="0.1524" layer="94"/>
<pin name="HV4" x="-5.08" y="27.94" length="middle"/>
<pin name="HV3" x="-5.08" y="22.86" length="middle"/>
<pin name="GND" x="-5.08" y="17.78" length="middle"/>
<pin name="HV" x="-5.08" y="12.7" length="middle"/>
<pin name="HV2" x="-5.08" y="7.62" length="middle"/>
<pin name="HV1" x="-5.08" y="2.54" length="middle"/>
<pin name="LV1" x="20.32" y="2.54" length="middle" rot="R180"/>
<pin name="LV2" x="20.32" y="7.62" length="middle" rot="R180"/>
<pin name="LV" x="20.32" y="12.7" length="middle" rot="R180"/>
<pin name="LGND" x="20.32" y="17.78" length="middle" rot="R180"/>
<pin name="LV3" x="20.32" y="22.86" length="middle" rot="R180"/>
<pin name="LV4" x="20.32" y="27.94" length="middle" rot="R180"/>
<text x="0" y="33.02" size="1.778" layer="95">&gt;NAME</text>
<text x="0" y="-2.54" size="1.778" layer="96">&gt;VALUE</text>
</symbol>
<symbol name="TSC295033">
<wire x1="-20.32" y1="20.32" x2="-20.32" y2="10.16" width="0.1524" layer="94"/>
<wire x1="-20.32" y1="10.16" x2="-5.08" y2="10.16" width="0.1524" layer="94"/>
<wire x1="-5.08" y1="10.16" x2="-5.08" y2="20.32" width="0.1524" layer="94"/>
<wire x1="-5.08" y1="20.32" x2="-20.32" y2="20.32" width="0.1524" layer="94"/>
<pin name="IN" x="-25.4" y="15.24" length="middle"/>
<pin name="GND" x="-12.7" y="5.08" length="middle" rot="R90"/>
<pin name="OUT" x="0" y="15.24" length="middle" rot="R180"/>
<text x="-20.32" y="22.86" size="1.778" layer="95">&gt;NAME</text>
</symbol>
</symbols>
<devicesets>
<deviceset name="MAX118CPI" prefix="ADC">
<gates>
<gate name="G$1" symbol="MAX118CPI" x="-7.62" y="5.08"/>
</gates>
<devices>
<device name="" package="MAX118CPI">
<connects>
<connect gate="G$1" pin="A0" pad="A0"/>
<connect gate="G$1" pin="A1" pad="A1"/>
<connect gate="G$1" pin="A2" pad="A2"/>
<connect gate="G$1" pin="CS" pad="CS"/>
<connect gate="G$1" pin="D0" pad="D0"/>
<connect gate="G$1" pin="D1" pad="D1"/>
<connect gate="G$1" pin="D2" pad="D2"/>
<connect gate="G$1" pin="D3" pad="D3"/>
<connect gate="G$1" pin="D4" pad="D4"/>
<connect gate="G$1" pin="D5" pad="D5"/>
<connect gate="G$1" pin="D6" pad="D6"/>
<connect gate="G$1" pin="D7" pad="D7"/>
<connect gate="G$1" pin="GND" pad="GND"/>
<connect gate="G$1" pin="IN1" pad="IN1"/>
<connect gate="G$1" pin="IN2" pad="IN2"/>
<connect gate="G$1" pin="IN3" pad="IN3"/>
<connect gate="G$1" pin="IN4" pad="IN4"/>
<connect gate="G$1" pin="IN5" pad="IN5"/>
<connect gate="G$1" pin="IN6" pad="IN6"/>
<connect gate="G$1" pin="IN7" pad="IN7"/>
<connect gate="G$1" pin="INT" pad="INT"/>
<connect gate="G$1" pin="MODE" pad="MODE"/>
<connect gate="G$1" pin="PWRDN" pad="PWRDN"/>
<connect gate="G$1" pin="RD" pad="RD"/>
<connect gate="G$1" pin="REF+" pad="REF+"/>
<connect gate="G$1" pin="REF-" pad="REF-"/>
<connect gate="G$1" pin="VDD" pad="VDD"/>
<connect gate="G$1" pin="WR/RDY" pad="WR/RDY"/>
</connects>
<technologies>
<technology name=""/>
</technologies>
</device>
</devices>
</deviceset>
<deviceset name="LOGICLEVELCONVERTER" prefix="LLC">
<gates>
<gate name="G$1" symbol="LOGICLEVELCONVERTER" x="-7.62" y="-15.24"/>
</gates>
<devices>
<device name="" package="LOGICLEVELCONVERTER">
<connects>
<connect gate="G$1" pin="GND" pad="GND"/>
<connect gate="G$1" pin="HV" pad="HV"/>
<connect gate="G$1" pin="HV1" pad="HV1"/>
<connect gate="G$1" pin="HV2" pad="HV2"/>
<connect gate="G$1" pin="HV3" pad="HV3"/>
<connect gate="G$1" pin="HV4" pad="HV4"/>
<connect gate="G$1" pin="LGND" pad="LGND"/>
<connect gate="G$1" pin="LV" pad="LV"/>
<connect gate="G$1" pin="LV1" pad="LV1"/>
<connect gate="G$1" pin="LV2" pad="LV2"/>
<connect gate="G$1" pin="LV3" pad="LV3"/>
<connect gate="G$1" pin="LV4" pad="LV4"/>
</connects>
<technologies>
<technology name=""/>
</technologies>
</device>
</devices>
</deviceset>
<deviceset name="TSC295033" prefix="VREG">
<gates>
<gate name="G$1" symbol="TSC295033" x="12.7" y="-15.24"/>
</gates>
<devices>
<device name="" package="TSC295033">
<connects>
<connect gate="G$1" pin="GND" pad="GND"/>
<connect gate="G$1" pin="IN" pad="IN"/>
<connect gate="G$1" pin="OUT" pad="OUT"/>
</connects>
<technologies>
<technology name=""/>
</technologies>
</device>
</devices>
</deviceset>
</devicesets>
</library>
</drawing>
</eagle>
